…
# Display the result
head(penguins_categorized)
#> # A tibble: 6 × 9
#>   body_mass_g_category species island    bill_length_mm bill_depth_mm
#>   <fct>                <fct>   <fct>              <dbl>         <dbl>
#> 1 average              Adelie  Torgersen           39.1          18.7
#> 2 average              Adelie  Torgersen           39.5          17.4
#> 3 light                Adelie  Torgersen           40.3          18  
#> 4 <NA>                 Adelie  Torgersen           NA            NA  
#> 5 light                Adelie  Torgersen           36.7          19.3
#> 6 light                Adelie  Torgersen           39.3          20.6
#> # ℹ 4 more variables: flipper_length_mm <int>, body_mass_g <int>, sex <fct>,
#> #   year <int>
print(penguins_categorized)
#> # A tibble: 344 × 9
#>    body_mass_g_category species island    bill_length_mm bill_depth_mm
#>    <fct>                <fct>   <fct>              <dbl>         <dbl>
#>  1 average              Adelie  Torgersen           39.1          18.7
#>  2 average              Adelie  Torgersen           39.5          17.4
#>  3 light                Adelie  Torgersen           40.3          18  
#>  4 <NA>                 Adelie  Torgersen           NA            NA  
#>  5 light                Adelie  Torgersen           36.7          19.3
#>  6 light                Adelie  Torgersen           39.3          20.6
#>  7 light                Adelie  Torgersen           38.9          17.8
#>  8 heavy                Adelie  Torgersen           39.2          19.6
#>  9 light                Adelie  Torgersen           34.1          18.1
#> 10 average              Adelie  Torgersen           42            20.2
#> # ℹ 334 more rows
#> # ℹ 4 more variables: flipper_length_mm <int>, body_mass_g <int>, sex <fct>,
#> #   year <int>
```
